%YAML 1.1
%TAG !u! tag:unity3d.com,2011:
--- !u!74 &7400000
AnimationClip:
  m_ObjectHideFlags: 0
  m_PrefabParentObject: {fileID: 0}
  m_PrefabInternal: {fileID: 0}
  m_Name: IdletoCat
  serializedVersion: 6
  m_Legacy: 0
  m_Compressed: 0
  m_UseHighQualityCurve: 1
  m_RotationCurves: []
  m_CompressedRotationCurves: []
  m_EulerCurves: []
  m_PositionCurves: []
  m_ScaleCurves: []
  m_FloatCurves: []
  m_PPtrCurves:
  - curve:
    - time: 0
      value: {fileID: 21300000, guid: ef9796abc85765e4597eeff838372578, type: 3}
    - time: 0.05
      value: {fileID: 21300000, guid: 8a12069a012e0e0458039f828d6711a1, type: 3}
    - time: 0.1
      value: {fileID: 21300000, guid: b3bd238468702474fb8fad4a4fee3ef4, type: 3}
    - time: 0.15
      value: {fileID: 21300000, guid: a31e9feb1e043af41a0aba0f46f1b1fc, type: 3}
    - time: 0.2
      value: {fileID: 21300000, guid: 7d828eb80b35f32479d7a87e92fa3586, type: 3}
    - time: 0.25
      value: {fileID: 21300000, guid: 2c3caedfe49807d4cbf5ae150b8aa003, type: 3}
    - time: 0.3
      value: {fileID: 21300000, guid: 6852da9aecedc524d8960096f35c36d3, type: 3}
    - time: 0.35
      value: {fileID: 21300000, guid: fa0d467dbf8403e49a71447a88f89a5b, type: 3}
    - time: 0.4
      value: {fileID: 21300000, guid: 043ba5e68b1fbf44984d020d2f3b6a4a, type: 3}
    - time: 0.45
      value: {fileID: 21300000, guid: 787862768d43534429faf1ebe3dafa38, type: 3}
    - time: 0.5
      value: {fileID: 21300000, guid: f347b1c5d117bc8479c4a805d73111de, type: 3}
    - time: 0.55
      value: {fileID: 21300000, guid: c372da63b412625499373ae7cbd67394, type: 3}
    - time: 0.6
      value: {fileID: 21300000, guid: 444c0b0e4e3c40742b4be192a989e8f3, type: 3}
    attribute: m_Sprite
    path: 
    classID: 212
    script: {fileID: 0}
  m_SampleRate: 60
  m_WrapMode: 0
  m_Bounds:
    m_Center: {x: 0, y: 0, z: 0}
    m_Extent: {x: 0, y: 0, z: 0}
  m_ClipBindingConstant:
    genericBindings:
    - path: 0
      attribute: 0
      script: {fileID: 0}
      classID: 212
      customType: 23
      isPPtrCurve: 1
    pptrCurveMapping:
    - {fileID: 21300000, guid: ef9796abc85765e4597eeff838372578, type: 3}
    - {fileID: 21300000, guid: 8a12069a012e0e0458039f828d6711a1, type: 3}
    - {fileID: 21300000, guid: b3bd238468702474fb8fad4a4fee3ef4, type: 3}
    - {fileID: 21300000, guid: a31e9feb1e043af41a0aba0f46f1b1fc, type: 3}
    - {fileID: 21300000, guid: 7d828eb80b35f32479d7a87e92fa3586, type: 3}
    - {fileID: 21300000, guid: 2c3caedfe49807d4cbf5ae150b8aa003, type: 3}
    - {fileID: 21300000, guid: 6852da9aecedc524d8960096f35c36d3, type: 3}
    - {fileID: 21300000, guid: fa0d467dbf8403e49a71447a88f89a5b, type: 3}
    - {fileID: 21300000, guid: 043ba5e68b1fbf44984d020d2f3b6a4a, type: 3}
    - {fileID: 21300000, guid: 787862768d43534429faf1ebe3dafa38, type: 3}
    - {fileID: 21300000, guid: f347b1c5d117bc8479c4a805d73111de, type: 3}
    - {fileID: 21300000, guid: c372da63b412625499373ae7cbd67394, type: 3}
    - {fileID: 21300000, guid: 444c0b0e4e3c40742b4be192a989e8f3, type: 3}
  m_AnimationClipSettings:
    serializedVersion: 2
    m_AdditiveReferencePoseClip: {fileID: 0}
    m_AdditiveReferencePoseTime: 0
    m_StartTime: 0
    m_StopTime: 0.6166667
    m_OrientationOffsetY: 0
    m_Level: 0
    m_CycleOffset: 0
    m_HasAdditiveReferencePose: 0
    m_LoopTime: 0
    m_LoopBlend: 0
    m_LoopBlendOrientation: 0
    m_LoopBlendPositionY: 0
    m_LoopBlendPositionXZ: 0
    m_KeepOriginalOrientation: 0
    m_KeepOriginalPositionY: 1
    m_KeepOriginalPositionXZ: 0
    m_HeightFromFeet: 0
    m_Mirror: 0
  m_EditorCurves: []
  m_EulerEditorCurves: []
  m_HasGenericRootTransform: 0
  m_HasMotionFloatCurves: 0
  m_GenerateMotionCurves: 0
  m_Events: []
